Labe_5
…
fatal_person<- filter(person, INJ_SEV==4)
fatal_person %>% 
  group_by(MAKE, STATE) %>%
  summarise(n_distinct(ST_CASE))

## `summarise()` regrouping output by 'MAKE' (override with `.groups` argument)

## # A tibble: 2,025 x 3
## # Groups:   MAKE [66]
##     MAKE STATE `n_distinct(ST_CASE)`
##    <int> <int>                 <int>
##  1     2     1                    30
##  2     2     2                     2
##  3     2     4                    13
##  4     2     5                    12
##  5     2     6                    35
##  6     2     8                    24
##  7     2     9                     7
##  8     2    10                     4
##  9     2    12                    29
## 10     2    13                    26
## #  with 2,015 more rows

fatal_acc<- filter(person, INJ_SEV==4)
top_makes<-fatal_acc %>%
  filter(!is.na(MAKE)) %>%
  group_by(STATE, MAKE) %>%
  summarise(num_cases = n_distinct(ST_CASE)) %>%
  arrange(desc(num_cases), .by_group = TRUE) %>%
  mutate(rank = row_number()) %>%
  filter(rank==1)

## `summarise()` regrouping output by 'STATE' (override with `.groups` argument)

top_makes

## # A tibble: 51 x 4
## # Groups:   STATE [51]
##    STATE  MAKE num_cases  rank
##    <int> <int>     <int> <int>
##  1     1    20       122     1
##  2     2    12         9     1
##  3     4    20        77     1
##  4     5    20        83     1
##  5     6    49       317     1
##  6     8    12        61     1
##  7     9    37        27     1
##  8    10    37        12     1
##  9    11    37         5     1
## 10    12    12       220     1
## #  with 41 more rows
…
